[2015-06-21 13:34:31] - Criado arquivo.
[13:34:34] [REPRODUCAO] - Ovelha Ovelha 00 - Grama: 200 - Pontos do jogador: 0
[13:34:34] [REPRODUCAO] - Ovelha Ovelha 01 - Grama: 200 - Pontos do jogador: 0
[13:34:51] [MORTE] - Ovelha Ovelha 02 - Grama: 321 - Pontos do jogador: 0
[13:34:51] [MORTE] - Ovelha Ovelha 03 - Grama: 321 - Pontos do jogador: 0
[13:34:51] [MORTE] - Ovelha Ovelha 04 - Grama: 321 - Pontos do jogador: 0
[13:34:55] [NASCIMENTO] - Ovelha OvelhaNew(Clone) - Grama: 353 - Pontos do jogador: 0
