[2015-06-21 13:04:22] - Criado arquivo.
[13:04:25] [REPRODUCAO] - Ovelha Ovelha 01 - Grama: 200 - Pontos do jogador: 0
[13:04:25] [REPRODUCAO] - Ovelha Ovelha 00 - Grama: 200 - Pontos do jogador: 0
[13:04:42] [MORTE] - Ovelha Ovelha 02 - Grama: 321 - Pontos do jogador: 0
[13:04:42] [MORTE] - Ovelha Ovelha 03 - Grama: 321 - Pontos do jogador: 0
[13:04:42] [MORTE] - Ovelha Ovelha 04 - Grama: 321 - Pontos do jogador: 0
[13:04:46] [NASCIMENTO] - Ovelha OvelhaNew(Clone) - Grama: 353 - Pontos do jogador: 0
[13:04:48] [REPRODUCAO] - Ovelha Ovelha 01 - Grama: 353 - Pontos do jogador: 0
[13:05:06] [MORTE] - Ovelha Ovelha 05 - Grama: 565 - Pontos do jogador: 0
[13:05:10] [MORTE - SACRIFICIO] - Ovelha Ovelha 00 - Grama: 621 - Pontos do jogador: 0
[13:05:10] [MORTE - SACRIFICIO] - Ovelha Ovelha 01 - Grama: 621 - Pontos do jogador: 0
