[2015-06-21 13:35:38] - Criado arquivo.
[13:35:41] [REPRODUCAO] - Ovelha Ovelha 00 - Grama: 200 - Pontos do jogador: 0
[13:35:41] [REPRODUCAO] - Ovelha Ovelha 01 - Grama: 200 - Pontos do jogador: 0
[13:35:58] [MORTE] - Ovelha Ovelha 02 - Grama: 321 - Pontos do jogador: 0
[13:35:58] [MORTE] - Ovelha Ovelha 03 - Grama: 321 - Pontos do jogador: 0
[13:35:58] [MORTE] - Ovelha Ovelha 04 - Grama: 321 - Pontos do jogador: 0
[13:36:02] [NASCIMENTO] - Ovelha OvelhaNew(Clone) - Grama: 353 - Pontos do jogador: 0
[13:36:06] [SACRIFICIO POR REPRODUCAO] - Ovelha Ovelha 01 - Grama: 388 - Pontos do jogador: 0
[13:36:06] [MORTE] - Ovelha Ovelha 00 - Grama: 388 - Pontos do jogador: 0
[13:36:22] [MORTE] - Ovelha Ovelha 05 - Grama: 388 - Pontos do jogador: 0
