[2015-06-21 13:18:01] - Criado arquivo.
[13:18:03] [REPRODUCAO] - Ovelha Ovelha 00 - Grama: 200 - Pontos do jogador: 0
[13:18:03] [REPRODUCAO] - Ovelha Ovelha 01 - Grama: 200 - Pontos do jogador: 0
[13:18:21] [MORTE] - Ovelha Ovelha 02 - Grama: 321 - Pontos do jogador: 0
[13:18:21] [MORTE] - Ovelha Ovelha 03 - Grama: 321 - Pontos do jogador: 0
[13:18:21] [MORTE] - Ovelha Ovelha 04 - Grama: 321 - Pontos do jogador: 0
[13:18:25] [NASCIMENTO] - Ovelha OvelhaNew(Clone) - Grama: 353 - Pontos do jogador: 0
[13:18:29] [MORTE] - Ovelha Ovelha 00 - Grama: 388 - Pontos do jogador: 0
[13:18:29] [MORTE] - Ovelha Ovelha 01 - Grama: 388 - Pontos do jogador: 0
