[2015-06-21 14:57:12] - Criado arquivo.
[14:57:16] [TOSA] - Ovelha Ovelha 00 - Grama: 200 - Pontos do jogador: 0
[14:57:17] [REPRODUCAO] - Ovelha Ovelha 01 - Grama: 200 - Pontos do jogador: 0
[14:57:17] [REPRODUCAO] - Ovelha Ovelha 02 - Grama: 200 - Pontos do jogador: 0
[14:57:20] [PASTO] - Ovelha Ovelha 03 - Grama: 200 - Pontos do jogador: 0
[14:57:21] [VENDA] - Ovelha Ovelha 04 - Grama: 200 - Pontos do jogador: 0
[14:57:57] [REPETINDO PASTO] - Ovelha Ovelha 03 - Grama: 245 - Pontos do jogador: 25
[14:58:17] [PASTO] - Ovelha Ovelha 00 - Grama: 269 - Pontos do jogador: 35
[14:58:32] [TOSA] - Ovelha Ovelha 03 - Grama: 285 - Pontos do jogador: 40
[14:58:42] [COMPRA] - Ovelha 5 - Grama: 285 - Pontos do jogador: 40
[14:58:42] [NASCIMENTO] - Ovelha OvelhaNew(Clone) - Grama: 303 - Pontos do jogador: 5
[14:58:44] [REPRODUCAO] - Ovelha Ovelha 05 - Grama: 303 - Pontos do jogador: 5
[14:58:44] [REPRODUCAO] - Ovelha Ovelha 00 - Grama: 303 - Pontos do jogador: 5
[14:58:47] [PASTO] - Ovelha Ovelha 01 - Grama: 303 - Pontos do jogador: 5
[14:58:48] [PASTO] - Ovelha Ovelha 02 - Grama: 303 - Pontos do jogador: 5
[14:58:52] [TOSA] - Ovelha Ovelha 06 - Grama: 303 - Pontos do jogador: 5
[14:59:21] [REPRODUCAO] - Ovelha Ovelha 02 - Grama: 346 - Pontos do jogador: 15
[14:59:21] [REPRODUCAO] - Ovelha Ovelha 01 - Grama: 346 - Pontos do jogador: 15
[14:59:35] [PASTO] - Ovelha Ovelha 03 - Grama: 380 - Pontos do jogador: 25
[14:59:45] [PASTO] - Ovelha Ovelha 06 - Grama: 418 - Pontos do jogador: 35
[15:00:01] [TOSA] - Ovelha Ovelha 03 - Grama: 449 - Pontos do jogador: 40
[15:00:12] [NASCIMENTO] - Ovelha OvelhaNew(Clone) - Grama: 483 - Pontos do jogador: 45
[15:00:17] [REPRODUCAO] - Ovelha Ovelha 07 - Grama: 483 - Pontos do jogador: 45
[15:00:17] [REPRODUCAO] - Ovelha Ovelha 00 - Grama: 483 - Pontos do jogador: 45
[15:00:19] [PASTO] - Ovelha Ovelha 05 - Grama: 483 - Pontos do jogador: 45
[15:00:27] [PASTO] - Ovelha Ovelha 06 - Grama: 483 - Pontos do jogador: 45
[15:00:42] [NASCIMENTO] - Ovelha OvelhaNew(Clone) - Grama: 564 - Pontos do jogador: 55
[15:00:47] [PASTO] - Ovelha Ovelha 02 - Grama: 564 - Pontos do jogador: 55
[15:00:49] [SACRIFICIO POR REPRODUCAO] - Ovelha Ovelha 02 - Grama: 564 - Pontos do jogador: 55
[15:00:55] [TOSA] - Ovelha Ovelha 08 - Grama: 564 - Pontos do jogador: 55
[15:00:57] [REPETINDO PASTO] - Ovelha Ovelha 05 - Grama: 610 - Pontos do jogador: 65
[15:00:57] [REPETINDO PASTO] - Ovelha Ovelha 06 - Grama: 600 - Pontos do jogador: 65
[15:01:10] [PASTO] - Ovelha Ovelha 03 - Grama: 600 - Pontos do jogador: 65
[15:01:26] [COMPRA] - Ovelha 9 - Grama: 660 - Pontos do jogador: 65
[15:01:29] [TOSA] - Ovelha Ovelha 09 - Grama: 696 - Pontos do jogador: 40
[15:01:33] [TOSA] - Ovelha Ovelha 03 - Grama: 696 - Pontos do jogador: 40
[15:01:35] [TOSA] - Ovelha Ovelha 06 - Grama: 696 - Pontos do jogador: 40
[15:01:36] [TOSA] - Ovelha Ovelha 05 - Grama: 696 - Pontos do jogador: 40
[15:01:42] [NASCIMENTO] - Ovelha OvelhaNew(Clone) - Grama: 765 - Pontos do jogador: 50
[15:01:45] [PASTO] - Ovelha Ovelha 08 - Grama: 765 - Pontos do jogador: 50
[15:01:47] [TOSA] - Ovelha Ovelha 10 - Grama: 765 - Pontos do jogador: 50
[15:01:55] [SACRIFICIO POR REPRODUCAO] - Ovelha Ovelha 00 - Grama: 765 - Pontos do jogador: 50
[15:02:12] [NASCIMENTO] - Ovelha OvelhaNew(Clone) - Grama: 925 - Pontos do jogador: 50
[15:02:12] [MORTE - SACRIFICIO] - Ovelha Ovelha 01 - Grama: 925 - Pontos do jogador: 50
[15:02:12] [MORTE - SACRIFICIO] - Ovelha Ovelha 02 - Grama: 925 - Pontos do jogador: 55
[15:02:17] [TOSA] - Ovelha Ovelha 11 - Grama: 915 - Pontos do jogador: 60
[15:02:19] [TOSA] - Ovelha Ovelha 08 - Grama: 915 - Pontos do jogador: 60
[15:02:30] [PASTO] - Ovelha Ovelha 06 - Grama: 1006 - Pontos do jogador: 100
[15:02:32] [PASTO] - Ovelha Ovelha 03 - Grama: 1006 - Pontos do jogador: 100
[15:02:33] [PASTO] - Ovelha Ovelha 09 - Grama: 1006 - Pontos do jogador: 100
[15:02:35] [PASTO] - Ovelha Ovelha 05 - Grama: 1006 - Pontos do jogador: 100
[15:02:47] [PASTO] - Ovelha Ovelha 10 - Grama: 1106 - Pontos do jogador: 110
[15:02:57] [COMPRA] - Ovelha 12 - Grama: 1106 - Pontos do jogador: 110
[15:02:57] [COMPRA] - Ovelha 13 - Grama: 1106 - Pontos do jogador: 70
[15:02:59] [COMPRA] - Ovelha 14 - Grama: 1176 - Pontos do jogador: 50
[15:03:02] [TOSA] - Ovelha Ovelha 13 - Grama: 1176 - Pontos do jogador: 10
[15:03:03] [REPRODUCAO] - Ovelha Ovelha 12 - Grama: 1176 - Pontos do jogador: 10
[15:03:03] [REPRODUCAO] - Ovelha Ovelha 03 - Grama: 1176 - Pontos do jogador: 10
[15:03:05] [REPRODUCAO] - Ovelha Ovelha 14 - Grama: 1176 - Pontos do jogador: 10
[15:03:05] [REPRODUCAO] - Ovelha Ovelha 05 - Grama: 1176 - Pontos do jogador: 10
[15:03:08] [TOSA] - Ovelha Ovelha 09 - Grama: 1176 - Pontos do jogador: 10
[15:03:10] [TOSA] - Ovelha Ovelha 06 - Grama: 1176 - Pontos do jogador: 10
[15:03:12] [MORTE - SACRIFICIO] - Ovelha Ovelha 00 - Grama: 1293 - Pontos do jogador: 10
[15:03:12] [NASCIMENTO] - Ovelha OvelhaNew(Clone) - Grama: 1293 - Pontos do jogador: 10
[15:03:12] [MORTE - SACRIFICIO] - Ovelha Ovelha 07 - Grama: 1293 - Pontos do jogador: 10
[15:03:16] [TOSA] - Ovelha Ovelha 15 - Grama: 1283 - Pontos do jogador: 35
[15:03:18] [PASTO] - Ovelha Ovelha 11 - Grama: 1283 - Pontos do jogador: 35
[15:03:19] [TOSA] - Ovelha Ovelha 10 - Grama: 1283 - Pontos do jogador: 35
[15:03:21] [PASTO] - Ovelha Ovelha 08 - Grama: 1283 - Pontos do jogador: 35
[15:03:47] [TOSA] - Ovelha Ovelha 08 - Grama: 1532 - Pontos do jogador: 45
[15:03:48] [TOSA] - Ovelha Ovelha 11 - Grama: 1532 - Pontos do jogador: 45
[15:03:51] [COMPRA] - Ovelha 16 - Grama: 1532 - Pontos do jogador: 45
[15:03:53] [TOSA] - Ovelha Ovelha 16 - Grama: 1532 - Pontos do jogador: 5
[15:04:00] [PASTO] - Ovelha Ovelha 09 - Grama: 1685 - Pontos do jogador: 35
[15:04:01] [PASTO] - Ovelha Ovelha 13 - Grama: 1685 - Pontos do jogador: 35
[15:04:03] [PASTO] - Ovelha Ovelha 06 - Grama: 1685 - Pontos do jogador: 35
[15:04:15] [PASTO] - Ovelha Ovelha 15 - Grama: 1853 - Pontos do jogador: 55
[15:04:16] [PASTO] - Ovelha Ovelha 10 - Grama: 1853 - Pontos do jogador: 55
[15:04:27] [NASCIMENTO] - Ovelha OvelhaNew(Clone) - Grama: 2008 - Pontos do jogador: 70
[15:04:27] [NASCIMENTO] - Ovelha OvelhaNew(Clone) - Grama: 2008 - Pontos do jogador: 70
[15:04:30] [PASTO] - Ovelha Ovelha 12 - Grama: 2008 - Pontos do jogador: 70
[15:04:31] [PASTO] - Ovelha Ovelha 03 - Grama: 2008 - Pontos do jogador: 70
[15:04:33] [PASTO] - Ovelha Ovelha 14 - Grama: 2008 - Pontos do jogador: 70
[15:04:35] [PASTO] - Ovelha Ovelha 05 - Grama: 2008 - Pontos do jogador: 70
[15:04:38] [TOSA] - Ovelha Ovelha 17 - Grama: 2008 - Pontos do jogador: 70
[15:04:40] [TOSA] - Ovelha Ovelha 18 - Grama: 2008 - Pontos do jogador: 70
[15:04:42] [REPRODUCAO] - Ovelha Ovelha 13 - Grama: 2008 - Pontos do jogador: 70
[15:04:42] [REPRODUCAO] - Ovelha Ovelha 06 - Grama: 2008 - Pontos do jogador: 70
[15:04:42] [REPETINDO PASTO] - Ovelha Ovelha 09 - Grama: 2198 - Pontos do jogador: 80
[15:04:45] [TOSA] - Ovelha Ovelha 15 - Grama: 2178 - Pontos do jogador: 110
[15:04:47] [PASTO] - Ovelha Ovelha 08 - Grama: 2178 - Pontos do jogador: 110
[15:04:48] [REPRODUCAO] - Ovelha Ovelha 11 - Grama: 2178 - Pontos do jogador: 110
[15:04:48] [REPRODUCAO] - Ovelha Ovelha 10 - Grama: 2178 - Pontos do jogador: 110
[15:04:50] [PASTO] - Ovelha Ovelha 16 - Grama: 2178 - Pontos do jogador: 110
[15:04:59] [TOSA] - Ovelha Ovelha 12 - Grama: 2355 - Pontos do jogador: 130
[15:05:02] [TOSA] - Ovelha Ovelha 03 - Grama: 2355 - Pontos do jogador: 130
[15:05:04] [TOSA] - Ovelha Ovelha 14 - Grama: 2355 - Pontos do jogador: 130
[15:05:06] [TOSA] - Ovelha Ovelha 05 - Grama: 2355 - Pontos do jogador: 130
[15:05:10] [COMPRA] - Ovelha 19 - Grama: 2355 - Pontos do jogador: 130
[15:05:10] [COMPRA] - Ovelha 20 - Grama: 2355 - Pontos do jogador: 90
[15:05:11] [COMPRA] - Ovelha 21 - Grama: 2355 - Pontos do jogador: 50
[15:05:12] [TOSA] - Ovelha Ovelha 19 - Grama: 2355 - Pontos do jogador: 10
[15:05:14] [TOSA] - Ovelha Ovelha 20 - Grama: 2560 - Pontos do jogador: 25
[15:05:16] [TOSA] - Ovelha Ovelha 21 - Grama: 2560 - Pontos do jogador: 25
[15:05:19] [TOSA] - Ovelha Ovelha 08 - Grama: 2560 - Pontos do jogador: 25
[15:05:22] [TOSA] - Ovelha Ovelha 09 - Grama: 2560 - Pontos do jogador: 25
[15:05:23] [TOSA] - Ovelha Ovelha 16 - Grama: 2560 - Pontos do jogador: 25
[15:05:30] [PASTO] - Ovelha Ovelha 18 - Grama: 2816 - Pontos do jogador: 45
[15:05:32] [PASTO] - Ovelha Ovelha 17 - Grama: 2816 - Pontos do jogador: 45
[15:05:39] [COMPRA] - Ovelha 22 - Grama: 2816 - Pontos do jogador: 45
[15:05:40] [TOSA] - Ovelha Ovelha 22 - Grama: 2816 - Pontos do jogador: 5
[15:05:47] [PASTO] - Ovelha Ovelha 15 - Grama: 3097 - Pontos do jogador: 15
[15:05:57] [NASCIMENTO] - Ovelha OvelhaNew(Clone) - Grama: 3386 - Pontos do jogador: 75
[15:05:59] [PASTO] - Ovelha Ovelha 12 - Grama: 3386 - Pontos do jogador: 75
[15:06:01] [PASTO] - Ovelha Ovelha 03 - Grama: 3386 - Pontos do jogador: 75
[15:06:03] [PASTO] - Ovelha Ovelha 06 - Grama: 3386 - Pontos do jogador: 75
[15:06:04] [PASTO] - Ovelha Ovelha 05 - Grama: 3386 - Pontos do jogador: 75
[15:06:06] [PASTO] - Ovelha Ovelha 14 - Grama: 3386 - Pontos do jogador: 75
[15:06:07] [PASTO] - Ovelha Ovelha 19 - Grama: 3386 - Pontos do jogador: 75
[15:06:09] [TOSA] - Ovelha Ovelha 23 - Grama: 3386 - Pontos do jogador: 75
[15:06:11] [TOSA] - Ovelha Ovelha 17 - Grama: 3386 - Pontos do jogador: 75
[15:06:12] [MORTE] - Ovelha Ovelha 13 - Grama: 3724 - Pontos do jogador: 95
[15:06:12] [REPETINDO PASTO] - Ovelha Ovelha 18 - Grama: 3704 - Pontos do jogador: 110
[15:06:12] [NASCIMENTO] - Ovelha OvelhaNew(Clone) - Grama: 3704 - Pontos do jogador: 130
[15:06:16] [TOSA] - Ovelha Ovelha 15 - Grama: 3704 - Pontos do jogador: 130
[15:06:18] [PASTO] - Ovelha Ovelha 08 - Grama: 3704 - Pontos do jogador: 130
[15:06:19] [PASTO] - Ovelha Ovelha 09 - Grama: 3704 - Pontos do jogador: 130
[15:06:21] [PASTO] - Ovelha Ovelha 21 - Grama: 3704 - Pontos do jogador: 130
[15:06:22] [PASTO] - Ovelha Ovelha 20 - Grama: 3704 - Pontos do jogador: 130
[15:06:24] [REPRODUCAO] - Ovelha Ovelha 16 - Grama: 3704 - Pontos do jogador: 130
[15:06:24] [REPRODUCAO] - Ovelha Ovelha 10 - Grama: 3704 - Pontos do jogador: 130
[15:06:27] [VENDA] - Ovelha Ovelha 11 - Grama: 3704 - Pontos do jogador: 130
[15:06:30] [TOSA] - Ovelha Ovelha 24 - Grama: 4014 - Pontos do jogador: 190
[15:06:32] [TOSA] - Ovelha Ovelha 06 - Grama: 4014 - Pontos do jogador: 190
[15:06:33] [TOSA] - Ovelha Ovelha 03 - Grama: 4014 - Pontos do jogador: 190
[15:06:35] [TOSA] - Ovelha Ovelha 12 - Grama: 4014 - Pontos do jogador: 190
[15:06:36] [TOSA] - Ovelha Ovelha 05 - Grama: 4014 - Pontos do jogador: 190
[15:06:38] [TOSA] - Ovelha Ovelha 14 - Grama: 4014 - Pontos do jogador: 190
[15:06:40] [TOSA] - Ovelha Ovelha 19 - Grama: 4014 - Pontos do jogador: 190
[15:06:41] [PASTO] - Ovelha Ovelha 22 - Grama: 4014 - Pontos do jogador: 190
[15:06:47] [TOSA] - Ovelha Ovelha 20 - Grama: 4365 - Pontos do jogador: 215
[15:06:49] [REPRODUCAO] - Ovelha Ovelha 21 - Grama: 4365 - Pontos do jogador: 215
[15:06:49] [REPRODUCAO] - Ovelha Ovelha 08 - Grama: 4365 - Pontos do jogador: 215
[15:06:51] [REPRODUCAO] - Ovelha Ovelha 09 - Grama: 4365 - Pontos do jogador: 215
[15:06:51] [REPRODUCAO] - Ovelha Ovelha 18 - Grama: 4365 - Pontos do jogador: 215
[15:07:00] [PASTO] - Ovelha Ovelha 17 - Grama: 4791 - Pontos do jogador: 240
[15:07:02] [PASTO] - Ovelha Ovelha 23 - Grama: 4791 - Pontos do jogador: 240
[15:07:04] [TOSA] - Ovelha Ovelha 22 - Grama: 4791 - Pontos do jogador: 240
[15:07:15] [PASTO] - Ovelha Ovelha 15 - Grama: 5270 - Pontos do jogador: 250
[15:07:17] [COMPRA] - Ovelha 25 - Grama: 5270 - Pontos do jogador: 250
[15:07:17] [COMPRA] - Ovelha 26 - Grama: 5270 - Pontos do jogador: 210
[15:07:18] [COMPRA] - Ovelha 27 - Grama: 5270 - Pontos do jogador: 170
[15:07:24] [TOSA] - Ovelha Ovelha 26 - Grama: 5270 - Pontos do jogador: 130
[15:07:26] [PASTO] - Ovelha Ovelha 25 - Grama: 5270 - Pontos do jogador: 130
[15:07:28] [TOSA] - Ovelha Ovelha 27 - Grama: 5777 - Pontos do jogador: 210
[15:07:30] [PASTO] - Ovelha Ovelha 24 - Grama: 5777 - Pontos do jogador: 210
[15:07:32] [PASTO] - Ovelha Ovelha 06 - Grama: 5777 - Pontos do jogador: 210
[15:07:33] [PASTO] - Ovelha Ovelha 14 - Grama: 5777 - Pontos do jogador: 210
[15:07:34] [PASTO] - Ovelha Ovelha 05 - Grama: 5777 - Pontos do jogador: 210
[15:07:36] [PASTO] - Ovelha Ovelha 19 - Grama: 5777 - Pontos do jogador: 210
[15:07:37] [PASTO] - Ovelha Ovelha 03 - Grama: 5777 - Pontos do jogador: 210
[15:07:39] [PASTO] - Ovelha Ovelha 12 - Grama: 5777 - Pontos do jogador: 210
[15:07:42] [REPETINDO PASTO] - Ovelha Ovelha 17 - Grama: 6334 - Pontos do jogador: 215
[15:07:42] [REPETINDO PASTO] - Ovelha Ovelha 23 - Grama: 6324 - Pontos do jogador: 225
[15:07:42] [NASCIMENTO] - Ovelha OvelhaNew(Clone) - Grama: 6314 - Pontos do jogador: 230
[15:07:45] [PASTO] - Ovelha Ovelha 16 - Grama: 6314 - Pontos do jogador: 230
[15:07:47] [PASTO] - Ovelha Ovelha 10 - Grama: 6314 - Pontos do jogador: 230
[15:07:52] [REPRODUCAO] - Ovelha Ovelha 25 - Grama: 6314 - Pontos do jogador: 230
[15:07:52] [REPRODUCAO] - Ovelha Ovelha 15 - Grama: 6314 - Pontos do jogador: 230
[15:07:56] [PASTO] - Ovelha Ovelha 28 - Grama: 6314 - Pontos do jogador: 230
[15:07:57] [SACRIFICIO POR TOSA] - Ovelha Ovelha 20 - Grama: 6885 - Pontos do jogador: 260
[15:08:01] [TOSA] - Ovelha Ovelha 24 - Grama: 6875 - Pontos do jogador: 275
[15:08:03] [TOSA] - Ovelha Ovelha 14 - Grama: 6875 - Pontos do jogador: 275
[15:08:05] [TOSA] - Ovelha Ovelha 05 - Grama: 6875 - Pontos do jogador: 275
[15:08:06] [TOSA] - Ovelha Ovelha 06 - Grama: 6875 - Pontos do jogador: 275
[15:08:08] [TOSA] - Ovelha Ovelha 12 - Grama: 6875 - Pontos do jogador: 275
[15:08:11] [TOSA] - Ovelha Ovelha 03 - Grama: 6875 - Pontos do jogador: 275
[15:08:12] [REPETINDO PASTO] - Ovelha Ovelha 19 - Grama: 7522 - Pontos do jogador: 290
[15:08:12] [SACRIFICIO POR TOSA] - Ovelha Ovelha 22 - Grama: 7522 - Pontos do jogador: 290
[15:08:12] [NASCIMENTO] - Ovelha OvelhaNew(Clone) - Grama: 7502 - Pontos do jogador: 310
[15:08:12] [NASCIMENTO] - Ovelha OvelhaNew(Clone) - Grama: 7502 - Pontos do jogador: 310
[15:08:15] [TOSA] - Ovelha Ovelha 29 - Grama: 7502 - Pontos do jogador: 310
[15:08:16] [TOSA] - Ovelha Ovelha 30 - Grama: 7502 - Pontos do jogador: 310
[15:08:18] [PASTO] - Ovelha Ovelha 21 - Grama: 7502 - Pontos do jogador: 310
[15:08:20] [PASTO] - Ovelha Ovelha 08 - Grama: 7502 - Pontos do jogador: 310
[15:08:21] [PASTO] - Ovelha Ovelha 09 - Grama: 7502 - Pontos do jogador: 310
[15:08:23] [PASTO] - Ovelha Ovelha 18 - Grama: 7502 - Pontos do jogador: 310
[15:08:25] [PASTO] - Ovelha Ovelha 26 - Grama: 7502 - Pontos do jogador: 310
[15:08:27] [TOSA] - Ovelha Ovelha 16 - Grama: 7502 - Pontos do jogador: 310
[15:08:27] [REPETINDO PASTO] - Ovelha Ovelha 10 - Grama: 8242 - Pontos do jogador: 310
[15:08:27] [REPETINDO PASTO] - Ovelha Ovelha 17 - Grama: 8232 - Pontos do jogador: 310
[15:08:27] [REPETINDO PASTO] - Ovelha Ovelha 23 - Grama: 8222 - Pontos do jogador: 310
[15:08:27] [REPETINDO PASTO] - Ovelha Ovelha 28 - Grama: 8212 - Pontos do jogador: 320
[15:08:31] [PASTO] - Ovelha Ovelha 27 - Grama: 8212 - Pontos do jogador: 320
[15:08:57] [REPETINDO PASTO] - Ovelha Ovelha 08 - Grama: 9860 - Pontos do jogador: 380
[15:08:57] [REPETINDO PASTO] - Ovelha Ovelha 09 - Grama: 9850 - Pontos do jogador: 380
[15:08:57] [REPETINDO PASTO] - Ovelha Ovelha 18 - Grama: 9820 - Pontos do jogador: 410
[15:08:57] [REPETINDO PASTO] - Ovelha Ovelha 19 - Grama: 9810 - Pontos do jogador: 410
[15:08:57] [MORTE - SACRIFICIO] - Ovelha Ovelha 20 - Grama: 9810 - Pontos do jogador: 420
[15:08:57] [SACRIFICIO POR TOSA] - Ovelha Ovelha 20 - Grama: 9810 - Pontos do jogador: 420
[15:08:57] [REPETINDO PASTO] - Ovelha Ovelha 21 - Grama: 9800 - Pontos do jogador: 420
[15:08:57] [REPETINDO PASTO] - Ovelha Ovelha 26 - Grama: 9780 - Pontos do jogador: 435
[15:09:01] [PASTO] - Ovelha Ovelha 12 - Grama: 9760 - Pontos do jogador: 445
[15:09:03] [PASTO] - Ovelha Ovelha 03 - Grama: 9760 - Pontos do jogador: 445
[15:09:04] [PASTO] - Ovelha Ovelha 24 - Grama: 9760 - Pontos do jogador: 445
[15:09:05] [PASTO] - Ovelha Ovelha 14 - Grama: 9760 - Pontos do jogador: 445
[15:09:06] [PASTO] - Ovelha Ovelha 05 - Grama: 9760 - Pontos do jogador: 445
[15:09:08] [PASTO] - Ovelha Ovelha 06 - Grama: 9760 - Pontos do jogador: 445
[15:09:12] [REPETINDO PASTO] - Ovelha Ovelha 10 - Grama: 10726 - Pontos do jogador: 445
[15:09:12] [REPETINDO PASTO] - Ovelha Ovelha 17 - Grama: 10716 - Pontos do jogador: 455
[15:09:12] [MORTE - SACRIFICIO] - Ovelha Ovelha 22 - Grama: 10716 - Pontos do jogador: 465
[15:09:12] [SACRIFICIO POR TOSA] - Ovelha Ovelha 22 - Grama: 10716 - Pontos do jogador: 465
[15:09:12] [REPETINDO PASTO] - Ovelha Ovelha 23 - Grama: 10706 - Pontos do jogador: 465
[15:09:12] [REPETINDO PASTO] - Ovelha Ovelha 27 - Grama: 10696 - Pontos do jogador: 465
[15:09:12] [REPETINDO PASTO] - Ovelha Ovelha 28 - Grama: 10686 - Pontos do jogador: 465
[15:09:12] [NASCIMENTO] - Ovelha OvelhaNew(Clone) - Grama: 10686 - Pontos do jogador: 485
[15:09:20] [PASTO] - Ovelha Ovelha 31 - Grama: 10686 - Pontos do jogador: 485
[15:09:22] [PASTO] - Ovelha Ovelha 29 - Grama: 10686 - Pontos do jogador: 485
[15:09:24] [PASTO] - Ovelha Ovelha 30 - Grama: 10686 - Pontos do jogador: 485
[15:09:25] [PASTO] - Ovelha Ovelha 16 - Grama: 10686 - Pontos do jogador: 485
[15:09:27] [PASTO] - Ovelha Ovelha 25 - Grama: 10686 - Pontos do jogador: 485
[15:09:27] [MORTE] - Ovelha Ovelha 15 - Grama: 11684 - Pontos do jogador: 520
[15:09:42] [REPETINDO PASTO] - Ovelha Ovelha 03 - Grama: 12787 - Pontos do jogador: 545
[15:09:42] [REPETINDO PASTO] - Ovelha Ovelha 05 - Grama: 12777 - Pontos do jogador: 545
[15:09:42] [REPETINDO PASTO] - Ovelha Ovelha 06 - Grama: 12767 - Pontos do jogador: 545
[15:09:42] [REPETINDO PASTO] - Ovelha Ovelha 08 - Grama: 12757 - Pontos do jogador: 545
[15:09:42] [REPETINDO PASTO] - Ovelha Ovelha 09 - Grama: 12747 - Pontos do jogador: 545
[15:09:42] [REPETINDO PASTO] - Ovelha Ovelha 12 - Grama: 12727 - Pontos do jogador: 550
[15:09:42] [REPETINDO PASTO] - Ovelha Ovelha 14 - Grama: 12717 - Pontos do jogador: 550
[15:09:42] [REPETINDO PASTO] - Ovelha Ovelha 18 - Grama: 12687 - Pontos do jogador: 560
[15:09:42] [REPETINDO PASTO] - Ovelha Ovelha 19 - Grama: 12677 - Pontos do jogador: 560
[15:09:42] [REPETINDO PASTO] - Ovelha Ovelha 21 - Grama: 12667 - Pontos do jogador: 560
[15:09:42] [REPETINDO PASTO] - Ovelha Ovelha 24 - Grama: 12647 - Pontos do jogador: 565
[15:09:42] [REPETINDO PASTO] - Ovelha Ovelha 26 - Grama: 12627 - Pontos do jogador: 570
[15:09:49] [VENDA] - Ovelha Ovelha 10 - Grama: 12577 - Pontos do jogador: 595
[15:09:51] [VENDA] - Ovelha Ovelha 16 - Grama: 12577 - Pontos do jogador: 615
[15:09:52] [VENDA] - Ovelha Ovelha 25 - Grama: 12577 - Pontos do jogador: 635
[15:09:54] [VENDA] - Ovelha Ovelha 30 - Grama: 12577 - Pontos do jogador: 655
[15:09:55] [VENDA] - Ovelha Ovelha 29 - Grama: 12577 - Pontos do jogador: 675
[15:09:57] [VENDA] - Ovelha Ovelha 27 - Grama: 12577 - Pontos do jogador: 695
[15:09:57] [REPETINDO PASTO] - Ovelha Ovelha 17 - Grama: 13824 - Pontos do jogador: 715
[15:09:57] [REPETINDO PASTO] - Ovelha Ovelha 23 - Grama: 13814 - Pontos do jogador: 715
[15:09:57] [REPETINDO PASTO] - Ovelha Ovelha 28 - Grama: 13804 - Pontos do jogador: 715
[15:09:57] [REPETINDO PASTO] - Ovelha Ovelha 31 - Grama: 13794 - Pontos do jogador: 715
[15:10:15] [VENDA] - Ovelha Ovelha 09 - Grama: 15053 - Pontos do jogador: 775
[15:10:16] [VENDA] - Ovelha Ovelha 24 - Grama: 15053 - Pontos do jogador: 795
[15:10:18] [VENDA] - Ovelha Ovelha 06 - Grama: 15053 - Pontos do jogador: 815
[15:10:20] [VENDA] - Ovelha Ovelha 19 - Grama: 15053 - Pontos do jogador: 835
[15:10:21] [VENDA] - Ovelha Ovelha 03 - Grama: 15053 - Pontos do jogador: 855
[15:10:23] [VENDA] - Ovelha Ovelha 08 - Grama: 15053 - Pontos do jogador: 875
[15:10:24] [VENDA] - Ovelha Ovelha 14 - Grama: 15053 - Pontos do jogador: 895
[15:10:26] [VENDA] - Ovelha Ovelha 05 - Grama: 15053 - Pontos do jogador: 915
[15:10:27] [REPETINDO PASTO] - Ovelha Ovelha 12 - Grama: 16548 - Pontos do jogador: 935
[15:10:27] [REPETINDO PASTO] - Ovelha Ovelha 18 - Grama: 16528 - Pontos do jogador: 940
[15:10:27] [REPETINDO PASTO] - Ovelha Ovelha 21 - Grama: 16518 - Pontos do jogador: 940
[15:10:27] [REPETINDO PASTO] - Ovelha Ovelha 26 - Grama: 16498 - Pontos do jogador: 945
[15:10:29] [VENDA] - Ovelha Ovelha 28 - Grama: 16478 - Pontos do jogador: 955
[15:10:31] [VENDA] - Ovelha Ovelha 31 - Grama: 16478 - Pontos do jogador: 975
[15:10:33] [VENDA] - Ovelha Ovelha 23 - Grama: 16478 - Pontos do jogador: 995
[15:10:35] [VENDA] - Ovelha Ovelha 17 - Grama: 16478 - Pontos do jogador: 1015
[15:11:00] [VENDA] - Ovelha Ovelha 18 - Grama: 19897 - Pontos do jogador: 1055
[15:11:02] [VENDA] - Ovelha Ovelha 21 - Grama: 19897 - Pontos do jogador: 1075
[15:11:04] [VENDA] - Ovelha Ovelha 26 - Grama: 19897 - Pontos do jogador: 1095
[15:11:06] [VENDA] - Ovelha Ovelha 12 - Grama: 19897 - Pontos do jogador: 1115
[Pontuaçao Final: 1135][Fim de jogo] - [15:11:12] 
=============== Configuraçoes ================
Ovelhas Iniciais: 5
Nº Max de Ovelhas: 20
Rodadas sem comer: 5
Unidades consumidas de grama: 10
Duraçao da rodada: 15
Quantidade de Rodadas: 110
Reajuste da grama em %: 10
Quant de grama inicial: 200

Duraçao no cercado em rodadas: 0
Duraçao no pasto em rodadas: 2
Pontos do pasto: 5
Duraçao na tosa em rodadas: 4
Pontos da tosa: 10
Duraçao na reproduçao em rodadas: 6
Bonificaçao da fornicaçao: Uma ovelha 0Km
Duraçao da venda em rodadas: 0
Pontos da venda: 20
Duraçao da compra em rodadas: 0
Pontos da compra: -40
=============== Configuraçoes ================
